{
  "puppet_task_version": 1,
  "supports_noop": false,
  "description": "Create a csr_attributes.yaml file if it does not exist.",
  "parameters": {
    "pp_role": {
      "type": "String",
      "description": "The Role of the host. (exclude 'role::' portion)"
    },
    "pp_product": {
      "type": "String",
      "description": "The product the host will be part of."
    },
    "pp_preshared_key": {
      "type": "String",
      "description": "A key to identify the host set (used to tag and search exported resources)"
    },
    "pp_service": {
      "type": "String",
      "description": "The service the host will be providing for the product"
    }
  },
  "input_method": "environment",
  "implementations": [
    {"name": "generate_csr_yaml.sh", "requirements": ["shell"]}
  ]
}
